[
    {
        "name": "Asia",
        "lat": "51.2086975",
        "lon": "89.2343748",
        "code": "AS"
    },
    {
        "name": "Europe",
        "lat": "51",
        "lon": "10",
        "code": "EU"
    },
    {
        "name": "Antarctica",
        "lat": "-79.4063075",
        "lon": "0.3149312",
        "code": "AN"
    },
    {
        "name": "Africa",
        "lat": "11.5024338",
        "lon": "17.7578122",
        "code": "AF"
    },
    {
        "name": "Oceania",
        "lat": "-18.3128",
        "lon": "138.5156",
        "code": "OC"
    },
    {
        "name": "North America",
        "lat": "51.0000002",
        "lon": "-109.0000002",
        "code": "NA"
    },
    {
        "name": "South America",
        "lat": "-21.0002179",
        "lon": "-61.0006565",
        "code": "SA"
    }
]